…
    Warning: The `printer` argument is deprecated as of rlang 0.3.0.
    This warning is displayed once per session.

    Warning: `new_overscope()` is deprecated as of rlang 0.2.0.
    Please use `new_data_mask()` instead.
    This warning is displayed once per session.

``` r
# See the result
incomes_med_ht
```

    # A tibble: 15,000 x 2
       replicate  stat
           <int> <dbl>
     1         1 75031
     2         2 75339
     3         3 70344
     4         4 75000
     5         5 73468
     6         6 73468
     7         7 75339
     8         8 75031
     9         9 70282
    10        10 73468
    # ... with 14,990 more rows
…
Now we are going to create a 95% confidence interval for the population median using bootstrapping on the sample data. In order to do this, we are going to present two methods: **percentile** and **standard error methods**. For each method, we will provide confidence interval.

``` r
# Calculate 15000 bootstrap medians of incomes
set.seed(12345) # in order to get the same results, we use set.seed()
income_median_ci <- incomes %>%
  specify(response = income)  %>%
  generate(reps = 15000, type = "bootstrap")  %>%
  calculate(stat = "median")
  
# See the result
income_median_ci
```

    # A tibble: 15,000 x 2
       replicate  stat
           <int> <dbl>
     1         1 69233
     2         2 69233
     3         3 74389
     4         4 72357
     5         5 73920
     6         6 74228
     7         7 73920
     8         8 74228
     9         9 73920
    10        10 73920
    # ... with 14,990 more rows
…
# See the result
diff_mean_ht
```

    # A tibble: 1,500 x 2
       replicate   stat
           <int>  <dbl>
     1         1  -280.
     2         2  -333.
     3         3  4006.
     4         4  1863.
     5         5  4863.
     6         6  -740.
     7         7 -3762.
     8         8   825.
     9         9 -6134.
    10        10 -1770.
    # ... with 1,490 more rows
…
#see the result
diff_mean_ci
```

    # A tibble: 1,500 x 2
       replicate    stat
           <int>   <dbl>
     1         1 -29084.
     2         2 -27534.
     3         3 -23633.
     4         4 -28912.
     5         5 -22116.
     6         6 -30892.
     7         7 -24302.
     8         8 -24560.
     9         9 -27635.
    10        10 -33736.
    # ... with 1,490 more rows
…
